<?xml version="1.0" encoding="UTF-8"?>
<svg width="212px" height="45px" viewBox="0 0 212 45" version="1.1" xmlns="http://www.w3.org/2000/svg" xmlns:xlink="http://www.w3.org/1999/xlink">
    <!-- Generator: Sketch 43.2 (39069) - http://www.bohemiancoding.com/sketch -->
    <title>hotwire-logo</title>
    <desc>Created with Sketch.</desc>
    <defs>
        <polygon id="path-1" points="105.802388 0.0073880597 0.0402985075 0.0073880597 0.0402985075 44.8374627 211.564478 44.8374627 211.564478 0.0073880597"></polygon>
        <polygon id="path-3" points="105.802388 0.0073880597 0.0402985075 0.0073880597 0.0402985075 44.8374627 211.564478 44.8374627 211.564478 0.0073880597"></polygon>
        <polygon id="path-5" points="12.7934328 8.01940299 0.445298507 8.01940299 0.445298507 0.503731343 12.7934328 0.503731343"></polygon>
        <polygon id="path-7" points="12.7934328 8.01940299 0.445298507 8.01940299 0.445298507 0.503731343 12.7934328 0.503731343"></polygon>
        <polygon id="path-9" points="21.8350746 8.01940299 0.174626866 8.01940299 0.174626866 0.503731343 21.8350746 0.503731343"></polygon>
        <polygon id="path-11" points="21.8350746 8.01940299 0.174626866 8.01940299 0.174626866 0.503731343 21.8350746 0.503731343"></polygon>
        <polygon id="path-13" points="21.8350746 8.01940299 0.174626866 8.01940299 0.174626866 0.503731343 21.8350746 0.503731343"></polygon>
        <polygon id="path-15" points="16.7863433 8.01940299 0.242462687 8.01940299 0.242462687 0.666268657 16.7863433 0.666268657"></polygon>
        <polygon id="path-17" points="16.7863433 8.01940299 0.242462687 8.01940299 0.242462687 0.666268657 16.7863433 0.666268657"></polygon>
        <polygon id="path-19" points="0.165895522 8.01940299 8.75216418 8.01940299 8.75216418 0.546716418 0.165895522 0.546716418"></polygon>
        <polygon id="path-21" points="0.165895522 8.01940299 8.75216418 8.01940299 8.75216418 0.546716418 0.165895522 0.546716418"></polygon>
        <polygon id="path-23" points="0.25858209 8.01940299 26.2343284 8.01940299 26.2343284 0.503731343 0.25858209 0.503731343"></polygon>
        <polygon id="path-25" points="0.25858209 8.01940299 26.2343284 8.01940299 26.2343284 0.503731343 0.25858209 0.503731343"></polygon>
        <polygon id="path-27" points="0.25858209 8.01940299 26.2343284 8.01940299 26.2343284 0.503731343 0.25858209 0.503731343"></polygon>
        <polygon id="path-29" points="0.25858209 8.01940299 26.2343284 8.01940299 26.2343284 0.503731343 0.25858209 0.503731343"></polygon>
        <polygon id="path-31" points="13.9902985 8.01940299 0.0705223881 8.01940299 0.0705223881 0.546716418 13.9902985 0.546716418"></polygon>
        <polygon id="path-33" points="13.9902985 8.01940299 0.0705223881 8.01940299 0.0705223881 0.546716418 13.9902985 0.546716418"></polygon>
    </defs>
    <g id="Page-1" stroke="none" stroke-width="1" fill="none" fill-rule="evenodd">
        <g id="hotwire-logo">
            <g id="Group-4">
                <g id="Fill-1-Clipped">
                    <mask id="mask-2" fill="white">
                        <use xlink:href="#path-1"></use>
                    </mask>
                    <g id="path-1"></g>
                    <path d="M47.5408209,0.0073880597 C38.8477612,0.0073880597 31.9150746,6.94007463 31.9150746,15.6331343 C31.9150746,24.2160448 38.9579104,31.2588806 47.5408209,31.2588806 C56.1237313,31.2588806 63.1665672,24.326194 63.1665672,15.6331343 C63.1665672,7.05022388 56.2338806,0.0073880597 47.5408209,0.0073880597 Z M15.9763433,9.23708955 L12.7927612,9.23708955 L12.7927612,0.36 L0.00201492537,0.36 L0.00201492537,31.5402985 L12.7927612,31.5402985 L12.7927612,22.0291791 L15.9763433,22.0291791 L15.9763433,31.5402985 L28.7670896,31.5402985 L28.7670896,0.36 L15.9763433,0.36 L15.9763433,9.23708955 Z M98.91,0.324402985 L98.91,31.5758955 L112.395224,18.09 L112.395224,31.5758955 L143.646045,0.324402985 L98.91,0.324402985 Z M211.564478,9.27268657 L211.564478,0.324402985 L192.890821,0.324402985 L192.890821,31.5758955 L211.564478,31.5758955 L211.564478,22.6276119 L207.062463,22.6276119 L207.062463,20.979403 L209.917612,20.979403 L209.917612,10.9208955 L207.062463,10.9208955 L207.062463,9.27268657 L211.564478,9.27268657 Z M145.57097,31.5758955 L160.463284,31.5758955 L160.463284,0.325074627 L145.57097,0.325074627 L145.57097,31.5758955 Z M180.155821,20.7846269 C184.516119,19.5380597 187.711791,15.5370896 187.711791,10.7764925 C187.711791,5.05746269 183.104328,0.418432836 177.399403,0.358656716 L177.399403,0.324402985 L164.301045,0.324402985 L164.301045,31.5758955 L190.024254,31.5758955 L180.155821,20.7846269 Z M94.914403,0.324402985 L94.914403,14.8164179 L87.1193284,14.8164179 L87.1193284,31.5758955 L73.7798507,31.5758955 L73.7798507,14.8164179 L65.9847761,14.8164179 L65.9847761,0.324402985 L94.914403,0.324402985 L94.914403,0.324402985 Z" id="Fill-1" fill="#000000" fill-rule="nonzero" mask="url(#mask-2)"></path>
                </g>
                <g id="Fill-3-Clipped">
                    <mask id="mask-4" fill="white">
                        <use xlink:href="#path-3"></use>
                    </mask>
                    <g id="path-1"></g>
                    <polygon id="Fill-3" fill="#2D2E2C" fill-rule="nonzero" mask="url(#mask-4)" points="3.41462687 44.8374627 1.53940299 44.8374627 1.53940299 39.2003731 0 39.2003731 0 37.6065672 4.95402985 37.6065672 4.95402985 39.2003731 3.41462687 39.2003731"></polygon>
                </g>
            </g>
            <polyline id="Fill-5" fill="#2D2E2C" fill-rule="nonzero" points="7.66477612 40.3065672 10.3748507 40.3065672 10.3748507 37.6065672 12.2614925 37.6065672 12.2614925 44.8374627 10.3748507 44.8374627 10.3748507 41.9104478 7.66477612 41.9104478 7.66477612 44.8374627 5.78955224 44.8374627 5.78955224 37.6065672 7.66477612 37.6065672 7.66477612 40.3065672"></polyline>
            <polyline id="Fill-6" fill="#2D2E2C" fill-rule="nonzero" points="17.8878358 39.2003731 15.6552985 39.2003731 15.6552985 40.4032836 17.7689552 40.4032836 17.7689552 41.9970896 15.6552985 41.9970896 15.6552985 43.2443284 17.8878358 43.2443284 17.8878358 44.8374627 13.779403 44.8374627 13.779403 37.6065672 17.8878358 37.6065672 17.8878358 39.2003731"></polyline>
            <path d="M25.0750746,40.7397761 L28.8047015,40.7397761 C28.8047015,42.1703731 28.5125373,43.1899254 27.6447761,43.9918657 C26.8858209,44.6964179 26.0187313,44.9026119 25.0972388,44.9026119 C23.7962687,44.9026119 22.9070149,44.4250746 22.3220149,43.8293284 C21.78,43.2873134 21.2809701,42.408806 21.2809701,41.2166418 C21.2809701,40.0674627 21.7370149,39.1244776 22.3656716,38.5065672 C22.9614179,37.9101493 23.8936567,37.4440299 25.1731343,37.4440299 C25.8454478,37.4440299 26.5714925,37.5958209 27.1249254,37.9316418 C27.6884328,38.2788806 28.1545522,38.853806 28.4144776,39.4166418 L26.6258955,40.1541045 C26.495597,39.8182836 26.289403,39.5798507 26.1053731,39.4280597 C25.7910448,39.1674627 25.4552239,39.0700746 25.0972388,39.0700746 C24.6526119,39.0700746 24.1972388,39.2326119 23.8614179,39.5691045 C23.4382836,39.9915672 23.2327612,40.6638806 23.2327612,41.2280597 C23.2327612,41.8889552 23.471194,42.4309701 23.8070149,42.7889552 C24.1542537,43.1570149 24.5767164,43.3417164 25.1294776,43.3417164 C25.4552239,43.3417164 25.8347015,43.2873134 26.1705224,43.0052239 C26.343806,42.8641791 26.55,42.6035821 26.6151493,42.2032836 L25.0750746,42.2032836 L25.0750746,40.7397761" id="Fill-7" fill="#2D2E2C" fill-rule="nonzero"></path>
            <g id="Group-11" transform="translate(29.552239, 36.940299)">
                <g id="Fill-8-Clipped">
                    <mask id="mask-6" fill="white">
                        <use xlink:href="#path-5"></use>
                    </mask>
                    <g id="path-3"></g>
                    <polyline id="Fill-8" fill="#2D2E2C" fill-rule="nonzero" mask="url(#mask-6)" points="2.32052239 0.666268657 2.32052239 6.30402985 4.57589552 6.30402985 4.57589552 7.89716418 0.445298507 7.89716418 0.445298507 0.666268657 2.32052239 0.666268657"></polyline>
                </g>
                <g id="Fill-10-Clipped">
                    <mask id="mask-8" fill="white">
                        <use xlink:href="#path-7"></use>
                    </mask>
                    <g id="path-3"></g>
                    <path d="M7.34037313,2.89947761 C6.95014925,3.27962687 6.7661194,3.81022388 6.7661194,4.32 C6.7661194,4.95940299 7.06902985,5.40402985 7.34037313,5.66328358 C7.6869403,6.00044776 8.17522388,6.2388806 8.8038806,6.2388806 C9.44328358,6.2388806 9.92014925,6.01052239 10.2566418,5.67470149 C10.5924627,5.3388806 10.8416418,4.84052239 10.8416418,4.28776119 C10.8416418,3.72358209 10.5924627,3.22522388 10.2566418,2.89947761 C9.85567164,2.52 9.30223881,2.32522388 8.8038806,2.32522388 C8.28335821,2.32522388 7.73059701,2.50925373 7.34037313,2.89947761 Z M11.655,6.98641791 C10.918209,7.69097015 9.87716418,8.05970149 8.8038806,8.05970149 C7.73059701,8.05970149 6.68955224,7.69097015 5.95276119,6.98641791 C5.1830597,6.24962687 4.81432836,5.24149254 4.81432836,4.28776119 C4.81432836,3.3219403 5.1830597,2.30373134 5.95276119,1.57701493 C6.68955224,0.872462687 7.73059701,0.503731343 8.8038806,0.503731343 C9.87716418,0.503731343 10.918209,0.872462687 11.655,1.57701493 C12.4247015,2.30373134 12.7934328,3.3219403 12.7934328,4.28776119 C12.7934328,5.24149254 12.4247015,6.24962687 11.655,6.98641791 L11.655,6.98641791 Z" id="Fill-10" fill="#2D2E2C" fill-rule="nonzero" mask="url(#mask-8)"></path>
                </g>
            </g>
            <path d="M45.414403,43.3739552 L45.8368657,43.3739552 C46.3573881,43.3739552 46.790597,43.3195522 46.9961194,43.0811194 C47.0834328,42.9837313 47.1485821,42.821194 47.1485821,42.615 C47.1485821,42.3873134 47.0726866,42.2032836 46.9645522,42.0951493 C46.736194,41.8674627 46.2700746,41.8560448 45.8046269,41.8560448 L45.414403,41.8560448 L45.414403,43.3739552 Z M45.414403,40.4576866 L45.7609701,40.4576866 C45.9557463,40.4576866 46.2814925,40.436194 46.4762687,40.23 C46.5958209,40.1111194 46.6495522,39.9156716 46.6495522,39.7531343 C46.6495522,39.5691045 46.5850746,39.3850746 46.4762687,39.2655224 C46.3573881,39.1459701 46.1290299,39.0485821 45.7609701,39.0485821 L45.414403,39.0485821 L45.414403,40.4576866 Z M43.5385075,44.8374627 L43.5385075,37.6065672 L46.3352239,37.6065672 C46.8557463,37.6065672 47.4736567,37.6824627 47.9182836,38.1707463 C48.1674627,38.4414179 48.3629104,38.8860448 48.3629104,39.5254478 C48.3629104,39.8397761 48.3085075,40.1111194 48.1567164,40.4147015 C48.0049254,40.6961194 47.8423881,40.8586567 47.5710448,40.978209 C47.9505224,41.021194 48.33,41.1951493 48.5576866,41.4114179 C48.8505224,41.6935075 49.0459701,42.1596269 49.0459701,42.7345522 C49.0459701,43.4169403 48.7853731,43.8837313 48.5140299,44.154403 C48.123806,44.5560448 47.4414179,44.8374627 46.5521642,44.8374627 L43.5385075,44.8374627 L43.5385075,44.8374627 Z" id="Fill-12" fill="#2D2E2C" fill-rule="nonzero"></path>
            <path d="M54.151791,42.1918657 L53.3391045,39.8505224 L52.5479104,42.1918657 L54.151791,42.1918657 Z M54.6501493,43.6231343 L52.0273881,43.6231343 L51.5391045,44.8374627 L49.5557463,44.8374627 L52.3309701,37.6065672 L54.3794776,37.6065672 L57.1002985,44.8374627 L55.0947761,44.8374627 L54.6501493,43.6231343 L54.6501493,43.6231343 Z" id="Fill-13" fill="#2D2E2C" fill-rule="nonzero"></path>
            <g id="Group-18" transform="translate(57.761194, 36.940299)">
                <g id="Fill-14-Clipped">
                    <mask id="mask-10" fill="white">
                        <use xlink:href="#path-9"></use>
                    </mask>
                    <g id="path-5"></g>
                    <polyline id="Fill-14" fill="#2D2E2C" fill-rule="nonzero" mask="url(#mask-10)" points="2.04985075 0.666268657 2.04985075 6.30402985 4.30522388 6.30402985 4.30522388 7.89716418 0.174626866 7.89716418 0.174626866 0.666268657 2.04985075 0.666268657"></polyline>
                </g>
                <g id="Fill-16-Clipped">
                    <mask id="mask-12" fill="white">
                        <use xlink:href="#path-11"></use>
                    </mask>
                    <g id="path-5"></g>
                    <path d="M12.988209,7.70238806 C12.2406716,7.9730597 11.8282836,8.05970149 11.3621642,8.05970149 C10.1048507,8.05970149 9.16119403,7.56134328 8.56544776,6.97567164 C7.86089552,6.2711194 7.47067164,5.28447761 7.47067164,4.34149254 C7.47067164,3.31186567 7.91529851,2.33597015 8.56544776,1.67440299 C9.20485075,1.02425373 10.1693284,0.546716418 11.2970149,0.546716418 C11.6442537,0.546716418 12.2077612,0.601119403 12.988209,0.915447761 L12.988209,3.16007463 C12.3810448,2.41186567 11.6664179,2.36820896 11.3514179,2.36820896 C10.809403,2.36820896 10.3976866,2.53074627 10.0504478,2.84507463 C9.60649254,3.25746269 9.42179104,3.82097015 9.42179104,4.33074627 C9.42179104,4.82910448 9.62798507,5.38253731 10.006791,5.73985075 C10.321791,6.03201493 10.8201493,6.2388806 11.3514179,6.2388806 C11.6335075,6.2388806 12.3273134,6.20597015 12.988209,5.47925373 L12.988209,7.70238806" id="Fill-16" fill="#2D2E2C" fill-rule="nonzero" mask="url(#mask-12)"></path>
                </g>
                <g id="Fill-17-Clipped">
                    <mask id="mask-14" fill="white">
                        <use xlink:href="#path-13"></use>
                    </mask>
                    <g id="path-5"></g>
                    <path d="M16.3820149,2.89947761 C15.9911194,3.27962687 15.8070896,3.81022388 15.8070896,4.32 C15.8070896,4.95940299 16.1106716,5.40402985 16.3820149,5.66328358 C16.7285821,6.00044776 17.2168657,6.2388806 17.8455224,6.2388806 C18.4849254,6.2388806 18.961791,6.01052239 19.2982836,5.67470149 C19.6341045,5.3388806 19.8832836,4.84052239 19.8832836,4.28776119 C19.8832836,3.72358209 19.6341045,3.22522388 19.2982836,2.89947761 C18.8966418,2.52 18.3438806,2.32522388 17.8455224,2.32522388 C17.325,2.32522388 16.7722388,2.50925373 16.3820149,2.89947761 Z M20.6966418,6.98641791 C19.9591791,7.69097015 18.918806,8.05970149 17.8455224,8.05970149 C16.7722388,8.05970149 15.731194,7.69097015 14.994403,6.98641791 C14.2247015,6.24962687 13.8559701,5.24149254 13.8559701,4.28776119 C13.8559701,3.3219403 14.2247015,2.30373134 14.994403,1.57701493 C15.731194,0.872462687 16.7722388,0.503731343 17.8455224,0.503731343 C18.918806,0.503731343 19.9591791,0.872462687 20.6966418,1.57701493 C21.4663433,2.30373134 21.8350746,3.3219403 21.8350746,4.28776119 C21.8350746,5.24149254 21.4663433,6.24962687 20.6966418,6.98641791 L20.6966418,6.98641791 Z" id="Fill-17" fill="#2D2E2C" fill-rule="nonzero" mask="url(#mask-14)"></path>
                </g>
            </g>
            <polyline id="Fill-19" fill="#2D2E2C" fill-rule="nonzero" points="80.3229851 44.8374627 81.5473881 37.6065672 83.401791 37.6065672 84.8652985 41.4658209 86.4154478 37.6065672 88.2906716 37.6065672 89.3747015 44.8374627 87.4994776 44.8374627 86.968209 40.6746269 85.2232836 44.8374627 84.4750746 44.8374627 82.8053731 40.6746269 82.1874627 44.8374627 80.3229851 44.8374627"></polyline>
            <g id="Group-23" transform="translate(90.000000, 36.940299)">
                <g id="Fill-20-Clipped">
                    <mask id="mask-16" fill="white">
                        <use xlink:href="#path-15"></use>
                    </mask>
                    <g id="path-7"></g>
                    <polyline id="Fill-20" fill="#2D2E2C" fill-rule="nonzero" mask="url(#mask-16)" points="0.242462687 7.89716418 1.46753731 0.666268657 3.32126866 0.666268657 4.78477612 4.52552239 6.33559701 0.666268657 8.2108209 0.666268657 9.29485075 7.89716418 7.41962687 7.89716418 6.88835821 3.73432836 5.14276119 7.89716418 4.39455224 7.89716418 2.72552239 3.73432836 2.10761194 7.89716418 0.242462687 7.89716418"></polyline>
                </g>
                <g id="Fill-22-Clipped">
                    <mask id="mask-18" fill="white">
                        <use xlink:href="#path-17"></use>
                    </mask>
                    <g id="path-7"></g>
                    <path d="M12.3635821,0.666268657 L12.3635821,4.94865672 C12.3635821,5.25156716 12.3743284,5.71835821 12.7316418,6.06492537 C12.9485821,6.2711194 13.2951493,6.41216418 13.6208955,6.41216418 C13.9459701,6.41216418 14.2824627,6.28186567 14.4879851,6.09716418 C14.9218657,5.71835821 14.9111194,5.18708955 14.9111194,4.7861194 L14.9111194,0.666268657 L16.7863433,0.666268657 L16.7863433,4.81835821 C16.7863433,5.57731343 16.7541045,6.36850746 15.9729851,7.15970149 C15.3658209,7.77761194 14.6075373,8.05970149 13.5879851,8.05970149 C12.4502239,8.05970149 11.6368657,7.66947761 11.1922388,7.19261194 C10.5635821,6.50955224 10.4876866,5.5880597 10.4876866,4.81835821 L10.4876866,0.666268657 L12.3635821,0.666268657" id="Fill-22" fill="#2D2E2C" fill-rule="nonzero" mask="url(#mask-18)"></path>
                </g>
            </g>
            <polyline id="Fill-24" fill="#2D2E2C" fill-rule="nonzero" points="108.304254 44.8374627 108.304254 37.6065672 110.180149 37.6065672 113.638433 42.0293284 113.638433 37.6065672 115.513657 37.6065672 115.513657 44.8374627 113.638433 44.8374627 110.180149 40.4147015 110.180149 44.8374627 108.304254 44.8374627"></polyline>
            <g id="Group-28" transform="translate(116.865672, 36.940299)">
                <g id="Fill-25-Clipped">
                    <mask id="mask-20" fill="white">
                        <use xlink:href="#path-19"></use>
                    </mask>
                    <g id="path-9"></g>
                    <polygon id="Fill-25" fill="#2D2E2C" fill-rule="nonzero" mask="url(#mask-20)" points="0.165895522 7.89716418 2.0411194 7.89716418 2.0411194 0.666268657 0.165895522 0.666268657"></polygon>
                </g>
                <g id="Fill-27-Clipped">
                    <mask id="mask-22" fill="white">
                        <use xlink:href="#path-21"></use>
                    </mask>
                    <g id="path-9"></g>
                    <path d="M8.75216418,7.70238806 C8.00395522,7.9730597 7.59156716,8.05970149 7.12544776,8.05970149 C5.86813433,8.05970149 4.92514925,7.56134328 4.32873134,6.97567164 C3.6241791,6.2711194 3.23395522,5.28447761 3.23395522,4.34149254 C3.23395522,3.31186567 3.67791045,2.33597015 4.32873134,1.67440299 C4.96813433,1.02425373 5.93328358,0.546716418 7.06097015,0.546716418 C7.40753731,0.546716418 7.97171642,0.601119403 8.75216418,0.915447761 L8.75216418,3.16007463 C8.14432836,2.41186567 7.42902985,2.36820896 7.11537313,2.36820896 C6.57268657,2.36820896 6.16097015,2.53074627 5.81440299,2.84507463 C5.36977612,3.25746269 5.18507463,3.82097015 5.18507463,4.33074627 C5.18507463,4.82910448 5.39126866,5.38253731 5.77074627,5.73985075 C6.08507463,6.03201493 6.58343284,6.2388806 7.11537313,6.2388806 C7.39679104,6.2388806 8.09059701,6.20597015 8.75216418,5.47925373 L8.75216418,7.70238806" id="Fill-27" fill="#2D2E2C" fill-rule="nonzero" mask="url(#mask-22)"></path>
                </g>
            </g>
            <path d="M130.723657,42.1918657 L129.91097,39.8505224 L129.119776,42.1918657 L130.723657,42.1918657 Z M131.222015,43.6231343 L128.599254,43.6231343 L128.111642,44.8374627 L126.12694,44.8374627 L128.902836,37.6065672 L130.951343,37.6065672 L133.672164,44.8374627 L131.666642,44.8374627 L131.222015,43.6231343 L131.222015,43.6231343 Z" id="Fill-29" fill="#2D2E2C" fill-rule="nonzero"></path>
            <polyline id="Fill-30" fill="#2D2E2C" fill-rule="nonzero" points="136.914179 39.2003731 136.914179 44.8374627 135.038955 44.8374627 135.038955 39.2003731 133.499552 39.2003731 133.499552 37.6065672 138.453582 37.6065672 138.453582 39.2003731 136.914179 39.2003731"></polyline>
            <g id="Group-36" transform="translate(139.029851, 36.940299)">
                <g id="Fill-31-Clipped">
                    <mask id="mask-24" fill="white">
                        <use xlink:href="#path-23"></use>
                    </mask>
                    <g id="path-11"></g>
                    <polygon id="Fill-31" fill="#2D2E2C" fill-rule="nonzero" mask="url(#mask-24)" points="0.25858209 7.89716418 2.13447761 7.89716418 2.13447761 0.666268657 0.25858209 0.666268657"></polygon>
                </g>
                <g id="Fill-33-Clipped">
                    <mask id="mask-26" fill="white">
                        <use xlink:href="#path-25"></use>
                    </mask>
                    <g id="path-11"></g>
                    <path d="M5.85268657,2.89947761 C5.46246269,3.27962687 5.27776119,3.81022388 5.27776119,4.32 C5.27776119,4.95940299 5.58134328,5.40402985 5.85268657,5.66328358 C6.19925373,6.00044776 6.68686567,6.2388806 7.31619403,6.2388806 C7.95626866,6.2388806 8.43313433,6.01052239 8.76895522,5.67470149 C9.10477612,5.3388806 9.35462687,4.84052239 9.35462687,4.28776119 C9.35462687,3.72358209 9.10477612,3.22522388 8.76895522,2.89947761 C8.36731343,2.52 7.81455224,2.32522388 7.31619403,2.32522388 C6.79567164,2.32522388 6.24291045,2.50925373 5.85268657,2.89947761 Z M10.1673134,6.98641791 C9.42985075,7.69097015 8.38947761,8.05970149 7.31619403,8.05970149 C6.24291045,8.05970149 5.20186567,7.69097015 4.46507463,6.98641791 C3.69537313,6.24962687 3.32664179,5.24149254 3.32664179,4.28776119 C3.32664179,3.3219403 3.69537313,2.30373134 4.46507463,1.57701493 C5.20186567,0.872462687 6.24291045,0.503731343 7.31619403,0.503731343 C8.38947761,0.503731343 9.42985075,0.872462687 10.1673134,1.57701493 C10.9370149,2.30373134 11.3057463,3.3219403 11.3057463,4.28776119 C11.3057463,5.24149254 10.9370149,6.24962687 10.1673134,6.98641791 L10.1673134,6.98641791 Z" id="Fill-33" fill="#2D2E2C" fill-rule="nonzero" mask="url(#mask-26)"></path>
                </g>
                <g id="Fill-34-Clipped">
                    <mask id="mask-28" fill="white">
                        <use xlink:href="#path-27"></use>
                    </mask>
                    <g id="path-11"></g>
                    <polyline id="Fill-34" fill="#2D2E2C" fill-rule="nonzero" mask="url(#mask-28)" points="12.4985821 7.89716418 12.4985821 0.666268657 14.373806 0.666268657 17.8320896 5.08902985 17.8320896 0.666268657 19.7073134 0.666268657 19.7073134 7.89716418 17.8320896 7.89716418 14.373806 3.47440299 14.373806 7.89716418 12.4985821 7.89716418"></polyline>
                </g>
                <g id="Fill-35-Clipped">
                    <mask id="mask-30" fill="white">
                        <use xlink:href="#path-29"></use>
                    </mask>
                    <g id="path-11"></g>
                    <path d="M21.7027612,5.72910448 C22.104403,6.10858209 22.7108955,6.46656716 23.3617164,6.46656716 C23.741194,6.46656716 23.968209,6.34701493 24.0877612,6.21671642 C24.1958955,6.10858209 24.2724627,5.94537313 24.2724627,5.76134328 C24.2724627,5.62097015 24.2180597,5.45843284 24.0662687,5.32813433 C23.8822388,5.16492537 23.6001493,5.08902985 23.1340299,4.94865672 L22.6457463,4.79686567 C22.3428358,4.69880597 21.8975373,4.53626866 21.6053731,4.21119403 C21.2366418,3.81022388 21.1936567,3.30044776 21.1936567,2.93238806 C21.1936567,2.04313433 21.5402239,1.5011194 21.8545522,1.18679104 C22.2232836,0.818731343 22.8304478,0.503731343 23.7082836,0.503731343 C24.4235821,0.503731343 25.2584328,0.73141791 25.9414925,1.08940299 L25.1939552,2.55291045 C24.6297761,2.10828358 24.2066418,2.06462687 23.9574627,2.06462687 C23.7734328,2.06462687 23.5242537,2.10828358 23.3395522,2.28156716 C23.2314179,2.39037313 23.1555224,2.50925373 23.1555224,2.67179104 C23.1555224,2.80208955 23.1770149,2.89947761 23.2529104,2.99753731 C23.3073134,3.06201493 23.4369403,3.19231343 23.8822388,3.3219403 L24.4564925,3.49589552 C24.9118657,3.6369403 25.3887313,3.79947761 25.768209,4.21119403 C26.1369403,4.60141791 26.2343284,5.00238806 26.2343284,5.50141791 C26.2343284,6.16298507 26.071791,6.80238806 25.5512687,7.32223881 C24.9333582,7.94014925 24.1851493,8.05970149 23.4154478,8.05970149 C22.9600746,8.05970149 22.5268657,8.01604478 21.995597,7.82059701 C21.8760448,7.77761194 21.4206716,7.60432836 20.9008209,7.24701493 L21.7027612,5.72910448" id="Fill-35" fill="#2D2E2C" fill-rule="nonzero" mask="url(#mask-30)"></path>
                </g>
            </g>
            <path d="M172.885299,42.1918657 L172.072612,39.8505224 L171.280746,42.1918657 L172.885299,42.1918657 Z M173.384328,43.6231343 L170.760896,43.6231343 L170.272612,44.8374627 L168.288582,44.8374627 L171.064478,37.6065672 L173.112985,37.6065672 L175.834478,44.8374627 L173.828284,44.8374627 L173.384328,43.6231343 L173.384328,43.6231343 Z" id="Fill-37" fill="#2D2E2C" fill-rule="nonzero"></path>
            <path d="M179.921418,40.7397761 L183.651045,40.7397761 C183.651045,42.1703731 183.358209,43.1899254 182.490448,43.9918657 C181.732164,44.6964179 180.865075,44.9026119 179.94291,44.9026119 C178.64194,44.9026119 177.753358,44.4250746 177.168358,43.8293284 C176.625672,43.2873134 176.127313,42.408806 176.127313,41.2166418 C176.127313,40.0674627 176.582687,39.1244776 177.211343,38.5065672 C177.807761,37.9101493 178.74,37.4440299 180.018806,37.4440299 C180.691119,37.4440299 181.417836,37.5958209 181.970597,37.9316418 C182.534104,38.2788806 183.000224,38.853806 183.260149,39.4166418 L181.471567,40.1541045 C181.341269,39.8182836 181.135746,39.5798507 180.951045,39.4280597 C180.637388,39.1674627 180.300896,39.0700746 179.94291,39.0700746 C179.498955,39.0700746 179.043582,39.2326119 178.707761,39.5691045 C178.284627,39.9915672 178.078433,40.6638806 178.078433,41.2280597 C178.078433,41.8889552 178.316866,42.4309701 178.653358,42.7889552 C178.999925,43.1570149 179.42306,43.3417164 179.975821,43.3417164 C180.300896,43.3417164 180.680373,43.2873134 181.016866,43.0052239 C181.190149,42.8641791 181.396343,42.6035821 181.460821,42.2032836 L179.921418,42.2032836 L179.921418,40.7397761" id="Fill-38" fill="#2D2E2C" fill-rule="nonzero"></path>
            <polyline id="Fill-39" fill="#2D2E2C" fill-rule="nonzero" points="188.952313 39.2003731 186.719104 39.2003731 186.719104 40.4032836 188.832761 40.4032836 188.832761 41.9970896 186.719104 41.9970896 186.719104 43.2443284 188.952313 43.2443284 188.952313 44.8374627 184.843209 44.8374627 184.843209 37.6065672 188.952313 37.6065672 188.952313 39.2003731"></polyline>
            <g id="Group-43" transform="translate(190.074627, 36.940299)">
                <g id="Fill-40-Clipped">
                    <mask id="mask-32" fill="white">
                        <use xlink:href="#path-31"></use>
                    </mask>
                    <g id="path-13"></g>
                    <polyline id="Fill-40" fill="#2D2E2C" fill-rule="nonzero" mask="url(#mask-32)" points="0.0705223881 7.89716418 0.0705223881 0.666268657 1.94574627 0.666268657 5.40402985 5.08902985 5.40402985 0.666268657 7.27925373 0.666268657 7.27925373 7.89716418 5.40402985 7.89716418 1.94574627 3.47440299 1.94574627 7.89716418 0.0705223881 7.89716418"></polyline>
                </g>
                <g id="Fill-42-Clipped">
                    <mask id="mask-34" fill="white">
                        <use xlink:href="#path-33"></use>
                    </mask>
                    <g id="path-13"></g>
                    <path d="M13.9902985,7.70238806 C13.2420896,7.9730597 12.8303731,8.05970149 12.3642537,8.05970149 C11.1069403,8.05970149 10.1632836,7.56134328 9.56753731,6.97567164 C8.86231343,6.2711194 8.47208955,5.28447761 8.47208955,4.34149254 C8.47208955,3.31186567 8.91671642,2.33597015 9.56753731,1.67440299 C10.2069403,1.02425373 11.1714179,0.546716418 12.2991045,0.546716418 C12.6463433,0.546716418 13.2098507,0.601119403 13.9902985,0.915447761 L13.9902985,3.16007463 C13.3831343,2.41186567 12.6678358,2.36820896 12.3528358,2.36820896 C11.8114925,2.36820896 11.3991045,2.53074627 11.0518657,2.84507463 C10.6079104,3.25746269 10.423209,3.82097015 10.423209,4.33074627 C10.423209,4.82910448 10.6300746,5.38253731 11.0095522,5.73985075 C11.323209,6.03201493 11.8222388,6.2388806 12.3528358,6.2388806 C12.6349254,6.2388806 13.329403,6.20597015 13.9902985,5.47925373 L13.9902985,7.70238806" id="Fill-42" fill="#2D2E2C" fill-rule="nonzero" mask="url(#mask-34)"></path>
                </g>
            </g>
            <polyline id="Fill-44" fill="#2D2E2C" fill-rule="nonzero" points="206.981194 41.3684328 204.369179 37.6065672 206.613134 37.6065672 207.978582 39.5798507 209.290299 37.6065672 211.567164 37.6065672 208.867836 41.3684328 208.867836 44.8374627 206.981194 44.8374627 206.981194 41.3684328"></polyline>
        </g>
    </g>
</svg>