<?xml version="1.0" encoding="UTF-8" standalone="no"?>
<svg width="12px" height="11px" viewBox="0 0 12 11" version="1.1" xmlns="http://www.w3.org/2000/svg" xmlns:xlink="http://www.w3.org/1999/xlink">
    <!-- Generator: Sketch 46.2 (44496) - http://www.bohemiancoding.com/sketch -->
    <title>+</title>
    <desc>Created with Sketch.</desc>
    <defs></defs>
    <g id="Contact" stroke="none" stroke-width="1" fill="none" fill-rule="evenodd">
        <g id="Contact-SF" transform="translate(-1291.000000, -1546.000000)" fill="#1A1A1A">
            <polygon id="+" points="1291.792 1553.28 1295.44 1553.28 1295.44 1556.952 1298.56 1556.952 1298.56 1553.28 1302.208 1553.28 1302.208 1550.4 1298.56 1550.4 1298.56 1546.728 1295.44 1546.728 1295.44 1550.4 1291.792 1550.4"></polygon>
        </g>
    </g>
</svg>